<?xml version="1.0" encoding="utf-8"?>
<!-- Generator: Adobe Illustrator 24.1.3, SVG Export Plug-In . SVG Version: 6.00 Build 0)  -->
<svg version="1.1" id="Layer_1" xmlns="http://www.w3.org/2000/svg" xmlns:xlink="http://www.w3.org/1999/xlink" x="0px" y="0px"
	 viewBox="0 0 504 504" style="enable-background:new 0 0 504 504;" xml:space="preserve">
<style type="text/css">
	.st0{opacity:0.5;fill:#FFFFFF;stroke:#E6E7E8;stroke-miterlimit:10;enable-background:new    ;}
	.st1{fill:#C03A2B;}
	.st2{fill:#802F34;}
	.st3{fill:#F29C1F;}
	.st4{fill:#24AE5F;}
	.st5{fill:#E64C3C;}
</style>
<circle class="st0" cx="251.95" cy="252.14" r="250.95"/>
<path class="st1" d="M175.44,470.89c-1.68-3.3-0.25-8.01,3.06-13.58c6.13-7.37,13.53-13.59,21.85-18.34
	c10.06-5.98,20.5-11.3,31.26-15.93c0.21-13.29,3.78-26.29,10.37-37.83c7.5-13.5,16.38-26.15,26.51-37.79
	c-11.87-33.1-17.97-67.98-18.06-103.15c-0.75-32.5,7.26-64.6,23.2-92.92c0.66-1.1,1.38-2.15,2.2-3.15c0.83-1.03,1.74-2.04,2.67-3.02
	c0.96-1.06,1.94-2.08,2.91-3.06c0.98-0.98,1.94-1.92,2.86-2.85c6.12-6.07,13.41-10.82,21.45-13.97c8.03-3.12,16.5-5.03,25.1-5.66
	c0.09-1.63-0.09-3.29-0.56-4.85c-0.46-2.38-1.01-4.84-1.05-5.25c-0.37-1.9-0.76-3.78-1.17-5.65c-0.41-1.86-0.83-3.71-1.3-5.57
	c-0.78-3.25-1.68-6.51-2.69-9.72c-1.02-3.19-2.21-6.34-3.55-9.42c-2.02-4.81-4.67-9.33-7.87-13.45c-3.18-4.13-7.26-7.49-11.92-9.85
	c-3.88-1.42-7.91-2.37-12.01-2.87c-4.3-0.51-8.65-0.61-12.95-0.31c-3.28,0.24-6.54-0.5-9.4-2.11c-2.84-1.59-5.03-4.14-6.17-7.19
	c-1.23-3.03-1.04-6.45,0.54-9.31c2.09-3.43,4.94-6.34,8.33-8.5c1.4-0.96,2.96-1.71,4.58-2.2c1.63-0.5,3.32-0.79,5.04-0.86
	c11.55-0.66,23.09,1.28,33.79,5.67c9.96,4.51,18.81,11.15,25.9,19.49c5.95,7.11,10.56,15.25,13.58,24.02
	c4.87,15.08,7.5,30.79,7.82,46.64c4.19,0.5,8.34,1.3,12.42,2.4c4.16,1.11,8.23,2.54,12.19,4.22c13.56,5.71,25.49,14.7,34.73,26.15
	c9.69,12.05,15.43,26.78,16.45,42.21c0.89,14.47,0.1,29-2.35,43.29c-2.43,14.28-5.98,28.35-10.58,42.09
	c-9.11,28.43-21.56,55.68-37.07,81.18c-15.48,25.52-35.26,48.18-58.46,66.98c-6.49,5.19-13.28,10.01-20.32,14.43
	c-7.04,4.43-14.33,8.44-21.82,12.04c-14.69,6.93-30.06,12.3-45.88,16c-15.8,3.7-31.88,5.94-48.09,6.71
	C181.91,476.06,177.13,474.17,175.44,470.89z"/>
<path class="st2" d="M371.04,324.95c-2.08-1.97-2.67-5.05-1.44-7.64c6.18-12.96,11.61-26.27,16.3-39.85
	c4.13-11.95,7.03-22.33,9.03-30.42c0.54-2.32,2.28-4.17,4.56-4.84c2.28-0.68,4.74-0.06,6.45,1.59c1.71,1.66,2.38,4.1,1.78,6.41
	c-2.07,8.4-5.09,19.15-9.35,31.52c-4.85,14.06-10.49,27.82-16.87,41.26c-0.59,1.24-1.56,2.27-2.76,2.92
	C376.26,327.3,373.14,326.93,371.04,324.95z"/>
<path class="st2" d="M317.16,398.06c-1.96-2.69-1.6-6.41,0.83-8.69c5.67-5.3,11.04-10.92,16.1-16.83
	c5.23-6.12,10.17-12.51,14.74-19.14c1.32-1.97,3.61-3.08,5.98-2.89c2.37,0.19,4.45,1.63,5.45,3.78c1.01,2.15,0.78,4.68-0.6,6.61
	c-4.86,7.01-10.06,13.78-15.62,20.26c-5.36,6.26-11.06,12.22-17.09,17.84c-0.2,0.2-0.41,0.36-0.62,0.52
	c-0.21,0.15-0.44,0.3-0.68,0.43C322.75,401.56,319.1,400.75,317.16,398.06z"/>
<path class="st3" d="M54.19,211.72c13.69-2.41,27.81-0.16,40.08,6.42c27.42,12.54,48.98,1.53,54.51-13.41
	c5.54-14.95-4.97-33.84-41.68-37.09c26.37-31.68,54.43-50.36,80.62-57.22c23.96-7.23,49.94-2.09,69.35,13.71
	c1.36,1.12,2.24,2.75,2.4,4.51c0.17,1.77-0.36,3.53-1.47,4.91c-0.72,0.89-1.43,1.82-2.11,2.79c-0.69,0.96-1.34,1.96-1.96,3
	c-1.1,1.82-2.16,3.65-3.19,5.5c-1.02,1.84-2.01,3.7-2.97,5.59c-0.69,1.37-1.85,2.48-3.27,3.1c-1.43,0.61-3.01,0.73-4.52,0.32
	c-5.39-1.44-11.06-1.5-16.48-0.19c-6.39,1.62-12.17,5.03-16.71,9.79c6.18,2.53,12.61,4.77,17.95,7.35
	c4.74,1.78,8.75,5.07,11.45,9.36c-0.2,0.67-0.38,1.32-0.55,1.95c-0.17,0.65-0.32,1.25-0.45,1.84c-0.55,1.91-1.06,3.84-1.54,5.77
	c-0.48,1.94-0.92,3.89-1.31,5.84c-0.14,0.66-0.26,1.32-0.38,1.99c-0.12,0.66-0.25,1.33-0.36,2c-0.07,0.46-0.08,1.04-0.16,1.61
	c-0.02,0.54-0.18,1.06-0.44,1.52c-0.07,0.1-0.16,0.21-0.25,0.29c-0.09,0.09-0.2,0.19-0.29,0.26c-1.08,0.91-2.14,1.85-3.24,2.77
	c-1.07,0.93-2.2,1.78-3.38,2.56c-1.66,1.08-3.39,2.12-5.13,3.1c-1.75,0.99-3.51,1.91-5.28,2.74c-4.79,2.17-9.53,4.39-14.11,6.9
	c-4.61,2.48-8.99,5.38-13.07,8.64c-3.16,2.58-6.2,5.33-9.16,8.17c-2.94,2.85-5.82,5.82-8.62,8.83c-3.1,3.58-6.47,6.93-10.07,10.01
	c-3.64,3.07-7.97,5.17-12.63,6.12c-4.69,0.83-9.5,0.86-14.21,0.08c-4.7-0.77-9.34-1.88-13.88-3.35h-0.01
	c8.26,16.07,18.98,26.54,33.39,28.7s32.55-3.99,55.64-21.17c1.86-1.39,3.96-2.45,6.19-3.12c2.23-0.68,4.57-0.91,6.88-0.63
	c0.79,0.1,1.57,0.25,2.34,0.48c0.77,0.22,1.52,0.49,2.25,0.82c0.73,0.31,1.47,0.67,2.16,1.06c0.7,0.33,1.28,0.87,1.68,1.56
	c0.04,0.11,0.08,0.24,0.09,0.36s0.02,0.25,0.03,0.37c0.17,2.3,0.37,4.6,0.58,6.9c0.21,2.29,0.46,4.59,0.73,6.88
	c0.14,1.15,0.28,2.33,0.44,3.49c0.16,1.17,0.31,2.33,0.48,3.49c0.15,1.01,0.36,1.99,0.57,2.98s0.41,1.99,0.53,2.99
	c0.02,0.09,0.02,0.19,0.02,0.28c0,0.21-0.07,0.41-0.23,0.54c-0.08,0.07-0.16,0.16-0.25,0.22c-1.15,0.87-2.36,1.69-3.6,2.42
	s-2.53,1.43-3.83,2.05c-6.23,2.84-12.78,4.96-19.49,6.31c-6.73,1.45-13.6,2.41-20.26,3.39c7.51,8.22,16.51,14.93,26.53,19.79
	c7.94,3.36,16.7,4.29,25.16,2.63l1.74-0.81l1.74-0.81c0.41,3.67,0.2,7.39-0.62,10.98c-0.48,3.64-1.58,7.18-3.24,10.45
	c-15,7.14-31.57,10.36-48.16,9.39c-16.59-0.65-32.41-7.07-44.78-18.14c-9.41-9.16-17.58-19.51-24.31-30.81
	c-7.02-11.24-13.28-23.03-19.77-34.12c-8.01-13.67-18.77-25.56-31.59-34.9c-13.16-9.34-28.02-16.04-43.73-19.76
	C32.99,218.97,43.44,214.86,54.19,211.72z"/>
<path class="st4" d="M302.4,198.69c-2.26-1.27-3.53-3.77-3.2-6.33c1.48-9.71,0.4-19.63-3.13-28.8c-3.46-8.02-9.67-14.56-17.52-18.44
	c0.96-1.06,1.92-2.07,2.88-3.05c0.96-0.97,1.9-1.91,2.83-2.84c6.12-6.07,13.41-10.82,21.45-13.97c8.03-3.12,16.5-5.03,25.1-5.66
	c0.09-1.63-0.09-3.29-0.56-4.85c-0.46-2.38-1.01-4.84-1.05-5.25c-0.37-1.9-0.76-3.78-1.17-5.65c-0.41-1.86-0.83-3.71-1.3-5.57
	c-0.79-3.25-1.68-6.51-2.69-9.72c-1.02-3.19-2.21-6.34-3.55-9.42c-2.02-4.81-4.67-9.33-7.87-13.45c-3.18-4.13-7.26-7.49-11.92-9.85
	c-3.88-1.42-7.91-2.37-12.01-2.87c-4.3-0.51-8.65-0.61-12.95-0.31c-3.28,0.24-6.54-0.5-9.4-2.11c-2.84-1.59-5.03-4.14-6.17-7.19
	c-1.23-3.03-1.04-6.45,0.54-9.31c2.09-3.43,4.94-6.34,8.33-8.5c1.4-0.96,2.96-1.71,4.58-2.2c1.63-0.5,3.32-0.79,5.04-0.86
	c11.55-0.66,23.09,1.28,33.79,5.67c9.96,4.51,18.81,11.15,25.9,19.49c5.95,7.11,10.56,15.25,13.58,24.02
	c4.87,15.08,7.5,30.79,7.82,46.64c4.18,0.5,8.32,1.29,12.39,2.38c4.15,1.11,8.23,2.52,12.19,4.17l0.03,0.06
	c21.05,37.42,19.75,50.91,8.41,51.78c-11.34,0.86-32.7-10.92-51.75-24.06c-3.84,2.4-4.51,8.87-7.8,17.22
	c-4.7,11.76-12.98,21.75-23.64,28.56C307.47,199.9,304.67,200.03,302.4,198.69z"/>
<path class="st5" d="M178.26,457.81l0.28-0.5c6.13-7.37,13.53-13.59,21.85-18.34c10.06-5.98,20.5-11.3,31.26-15.93
	c0.21-13.29,3.78-26.29,10.37-37.83c7.5-13.5,16.38-26.15,26.51-37.79c-2.76-7.77-5.23-15.73-7.4-23.8
	c-2.16-8.06-4.03-16.24-5.58-24.47c-5.05-25.97-6.32-52.55-3.76-78.89c2.14-24.3,9.6-47.82,21.86-68.9c0.66-1.1,1.38-2.15,2.2-3.15
	c0.83-1.03,1.74-2.04,2.67-3.02l0.06-0.03c7.84,3.87,14.06,10.41,17.52,18.44c3.53,9.18,4.59,19.1,3.1,28.81
	c-0.3,2.56,0.98,5.06,3.23,6.32c2.25,1.31,5.06,1.18,7.17-0.33c0.35-0.24,0.69-0.48,1.02-0.73s0.65-0.5,0.96-0.75
	c9.94-6.78,17.56-16.45,21.89-27.68c3.1-8.06,3.81-14.28,7.56-16.63c0.3,0.21,0.6,0.42,0.91,0.63s0.62,0.43,0.94,0.67
	c7.09,33.61,9.74,68,7.92,102.29c-2.78,44.39-15.22,93.12-50.04,128.44c-22.41,23.85-48.53,43.93-77.34,59.47
	c-14.09,7.67-29.55,12.49-45.5,14.16L178.26,457.81z"/>
</svg>
